Composition,Description,Features,How_to_use,Image,Price,Ratings,Reviews,Title
,,,,"https://images-static.nykaa.com/media/catalog/product/tr:w-344,h-344,cm-pad_resize/s/t/stbot490_1__1.jpg","1499,1499",4.6 / 5,"532 Review,s","St.Botanica Hyaluronic Acid + Vitamin C, E Facial Serum"
,,,,"https://images-static.nykaa.com/media/catalog/product/tr:w-344,h-344,cm-pad_resize/s/t/stbot492_2.jpg","1499,1499",4.4 / 5,"572 Review,s",St.Botanica Vitamin C 20% + Vitamin E & Hyaluronic Acid Facial Serum
,,,,"https://images-static.nykaa.com/media/catalog/product/tr:w-344,h-344,cm-pad_resize/s/t/stbot491_1__1.jpg","1499,1499",4.7 / 5,"449 Review,s",St.Botanica Retinol 2.5% + Vitamin E & Hyaluronic Acid Professional Facial Serum
,,,,"https://images-static.nykaa.com/media/catalog/product/tr:w-344,h-344,cm-pad_resize/n/y/nynutrac00029_3.jpg",799,4.4 / 5,"8 Review,s",NutroActive Vitamin E Pure Concentrated
